#Frequenz der RF-Spule in kHz (Vpp_RF = 10 V);1.Resonanz:I_Sweep,I_horizontal;2.Resonanz:I_Sweep,I_horizontal;alle Ströme in mA
100 596 0 714 0
200 587 18 821 18
300 410 46 764 46
400 279 72 751 72
500 192 93 785 93
600 670 78 620 129
700 623 96 631 153
800 636 111 633 177
900 670 126 669 201
1000 633 144 635 225
